CaribicusSNPs
…
CaribicusSNPsDAPCResults

# A tibble: 700 × 4
   Original_Pop Sample  Assigned_Pop  Posterior_membership_probability
   <fct>        <chr>   <chr>                                    <dbl>
 1 C_warreni_DR CWxx038 C_anelpistus                          4.04e-66
 2 C_warreni_DR CWxx038 C_darlingtoni                         0       
 3 C_warreni_DR CWxx038 C_macrotus                            0       
 4 C_warreni_DR CWxx038 C_stenurus                            0       
 5 C_warreni_DR CWxx038 C_stenurus_st                         0       
 6 C_warreni_DR CWxx038 C_unknown                             0       
 7 C_warreni_DR CWxx038 C_warreni_DR                          1   e+ 0
 8 C_warreni_DR CWxx038 C_warreni_HA                          1.74e-19
 9 C_warreni_DR CWxx038 P_costatus                            0       
10 C_warreni_DR CWxx038 P_curtissi                            0       
# ℹ 690 more rows
…
WarreniSNPsDAPCResults

# A tibble: 87 × 4
   Original_Pop Sample  Assigned_Pop Posterior_membership_probability
   <fct>        <chr>   <chr>                                   <dbl>
 1 C_warreni_DR CWxx038 C_anelpistus                         0       
 2 C_warreni_DR CWxx038 C_warreni_DR                         1   e+ 0
 3 C_warreni_DR CWxx038 C_warreni_HA                         1.87e-26
 4 C_warreni_DR CWxx036 C_anelpistus                         0       
 5 C_warreni_DR CWxx036 C_warreni_DR                         1   e+ 0
 6 C_warreni_DR CWxx036 C_warreni_HA                         3.47e-22
 7 C_warreni_HA CWxx005 C_anelpistus                         0       
 8 C_warreni_HA CWxx005 C_warreni_DR                         3.26e-22
 9 C_warreni_HA CWxx005 C_warreni_HA                         1   e+ 0
10 C_warreni_DR CWxx037 C_anelpistus                         0       
# ℹ 77 more rows
…
